Case 1
…
Preparo dos dados que serão utilizados como treino e teste.

data_prepared_tbl <- full_data_gol_case1_tbl %>%
    filter(!is.na(total_pax)) %>%
    drop_na()

data_prepared_tbl

## # A tibble: 496 x 5
##    rowid local_de_venda data_venda total_pax total_pax_lag28
##    <int> <fct>          <date>         <dbl>           <dbl>
##  1    29 Arena          2016-11-29      7.55            6.92
##  2    30 Arena          2016-11-30      8.02            7.85
##  3    31 Arena          2016-12-01      8.00            8.10
##  4    32 Arena          2016-12-02      8.05            7.95
##  5    33 Arena          2016-12-03      8.06            8.13
##  6    34 Arena          2016-12-04      8.03            8.22
##  7    35 Arena          2016-12-05      7.86            7.97
##  8    36 Arena          2016-12-06      7.69            7.66
##  9    37 Arena          2016-12-07      8.01            8.32
## 10    38 Arena          2016-12-08      7.95            8.28
## # … with 486 more rows
…
